<?xml version="1.0" encoding="UTF-8"?>
<session version="1.0">
<refactoring comment="Rename type &apos;com.example.androidclient.MainActivity.DownloadWebpageTask&apos; to &apos;DownloadDataTask&apos;&#x0D;&#x0A;- Original project: &apos;AndroidClient&apos;&#x0D;&#x0A;- Original element: &apos;com.example.androidclient.MainActivity.DownloadWebpageTask&apos;&#x0D;&#x0A;- Renamed element: &apos;com.example.androidclient.MainActivity.DownloadDataTask&apos;&#x0D;&#x0A;- Update references to refactored element&#x0D;&#x0A;- Update textual occurrences in comments and strings" description="Rename type &apos;DownloadWebpageTask&apos;" flags="589826" id="org.eclipse.jdt.ui.rename.type" input="/src&lt;com.example.androidclient{MainActivity.java[MainActivity[DownloadWebpageTask" matchStrategy="1" name="DownloadDataTask" qualified="false" references="true" similarDeclarations="false" stamp="1413216156077" textual="false" version="1.0"/>
</session>